{
    "change_type": "cluster_template_changed",
    "cluster_id": 2514,
    "cluster_size": 3,
    "template_mined": "docker: Error response from daemon: <:*:> <:*:> <:*:> <:*:> <:*:> <:*:> <:*:>",
    "cluster_count": 1024
}