{
    "change_type": "cluster_created",
    "cluster_id": 3370,
    "cluster_size": 1,
    "template_mined": "flask mysql mysqld: Can't create* to file '*' (Errcode: * Permission denied)",
    "cluster_count": 1024
}