{
    "change_type": "cluster_template_changed",
    "cluster_id": 3395,
    "cluster_size": 2,
    "template_mined": "W: GPG error: * <:*:> InRelease: At least one invalid signature was encountered.",
    "cluster_count": 1024
}