{
    "change_type": "cluster_created",
    "cluster_id": 3479,
    "cluster_size": 1,
    "template_mined": "During handling of the above exception, another exception occurred:",
    "cluster_count": 1024
}