{
    "change_type": "cluster_created",
    "cluster_id": 3478,
    "cluster_size": 1,
    "template_mined": "* ('Connection aborted.', ConnectionRefusedError(*, 'Connection refused'))",
    "cluster_count": 1024
}