{
    "change_type": "cluster_created",
    "cluster_id": 3511,
    "cluster_size": 1,
    "template_mined": "*:*:* artisan: need a command, one of server, provision or build",
    "cluster_count": 1024
}