{
    "change_type": "cluster_template_changed",
    "cluster_id": 2619,
    "cluster_size": 2,
    "template_mined": "docker: Error response from daemon: pull access denied for <:*:> repository does not exist or may require 'docker login'.",
    "cluster_count": 1024
}