{
    "change_type": "cluster_created",
    "cluster_id": 3535,
    "cluster_size": 1,
    "template_mined": "*T*:*:* character set server: 'utf*' is currently an alias for the character set UTF*MB*, but will be an alias for UTF*MB* in a future release. Please consider using UTF*MB* in order to be unambiguous.",
    "cluster_count": 1024
}