{
    "change_type": "cluster_template_changed",
    "cluster_id": 2609,
    "cluster_size": 3,
    "template_mined": "Error response from daemon: Get <:*:> <:*:> server gave HTTP response to HTTPS <:*:>",
    "cluster_count": 1024
}