{
    "change_type": "cluster_created",
    "cluster_id": 3622,
    "cluster_size": 1,
    "template_mined": "The command '* c apk add no cache bash su exec' returned a non zero code: *",
    "cluster_count": 1024
}