{
    "change_type": "cluster_created",
    "cluster_id": 3619,
    "cluster_size": 1,
    "template_mined": "ERRO* error getting events from daemon: net*: request canceled",
    "cluster_count": 1024
}