{
    "change_type": "cluster_created",
    "cluster_id": 3640,
    "cluster_size": 1,
    "template_mined": "Step * : RUN apk add no cache python python dev py pip build base && pip install virtualenv",
    "cluster_count": 1024
}