{
    "change_type": "cluster_created",
    "cluster_id": 3633,
    "cluster_size": 1,
    "template_mined": "* docker credential desktop not installed or not available in PATH",
    "cluster_count": 1024
}