{
    "change_type": "cluster_created",
    "cluster_id": 3657,
    "cluster_size": 1,
    "template_mined": "psql: could not connect to server: No such file or directory",
    "cluster_count": 1024
}