{
    "change_type": "cluster_created",
    "cluster_id": 3701,
    "cluster_size": 1,
    "template_mined": "python* setuptools openssh server sgml base doc openssl blacklist debhelper",
    "cluster_count": 1024
}