{
    "change_type": "cluster_created",
    "cluster_id": 3687,
    "cluster_size": 1,
    "template_mined": "www browser apache* doc apache* suexec pristine apache* suexec custom ufw",
    "cluster_count": 1024
}