{
    "change_type": "cluster_template_changed",
    "cluster_id": 3329,
    "cluster_size": 3,
    "template_mined": "After this operation, * <:*:> of additional disk space will be used.",
    "cluster_count": 1024
}