{
    "change_type": "cluster_created",
    "cluster_id": 3668,
    "cluster_size": 1,
    "template_mined": "libasn* heimdal libatomic* libc dev bin libc* dev libcloog isl* libcurl*",
    "cluster_count": 1024
}