{
    "change_type": "cluster_created",
    "cluster_id": 3694,
    "cluster_size": 1,
    "template_mined": "git bzr git cvs git mediawiki git svn php pear glibc doc krb* doc krb* user",
    "cluster_count": 1024
}