{
    "change_type": "cluster_created",
    "cluster_id": 3834,
    "cluster_size": 1,
    "template_mined": "Log: awslogs fluentd gcplogs gelf journald json file logentries splunk syslog",
    "cluster_count": 1024
}