{
    "change_type": "cluster_created",
    "cluster_id": 3836,
    "cluster_size": 1,
    "template_mined": "Error response from daemon: No such image: hello world:latest",
    "cluster_count": 1024
}