{
    "change_type": "cluster_created",
    "cluster_id": 3850,
    "cluster_size": 1,
    "template_mined": "The command '* c apk add no cache python* bash nginx uwsgi uwsgi python* supervisor && python* m ensurepip && rm r * && pip* install upgrade pip setuptools && pip* install r * && rm * && rm r *' returned a non zero code: *",
    "cluster_count": 1024
}