{
    "change_type": "cluster_created",
    "cluster_id": 3897,
    "cluster_size": 1,
    "template_mined": "Error syncing pod, skipping: failed to * for * with ErrImagePull: *",
    "cluster_count": 1024
}