{
    "change_type": "cluster_created",
    "cluster_id": 3916,
    "cluster_size": 1,
    "template_mined": "ERROR * (HY*): Lost connection to MySQL server at 'reading initial communication packet', system error: *",
    "cluster_count": 1024
}