{
    "change_type": "cluster_created",
    "cluster_id": 3933,
    "cluster_size": 1,
    "template_mined": "*(*,*): error : Unable to load the service index for source *",
    "cluster_count": 1024
}