{
    "change_type": "cluster_created",
    "cluster_id": 4002,
    "cluster_size": 1,
    "template_mined": "Service app has neither an image nor a build context specified. At least one must be provided.",
    "cluster_count": 1024
}