{
    "change_type": "cluster_template_changed",
    "cluster_id": 3595,
    "cluster_size": 2,
    "template_mined": "Error response from daemon: <:*:> <:*:> <:*:> <:*:> <:*:> network <:*:> <:*:>",
    "cluster_count": 1024
}