{
    "change_type": "none",
    "cluster_id": 3034,
    "cluster_size": 2,
    "template_mined": "*(*,*): error MSB*: at *(ITaskExecutionHost taskExecutionHost, TaskLoggingContext taskLoggingContext, TaskHost taskHost, ItemBucket bucket, TaskExecutionMode howToExecuteTask) *",
    "cluster_count": 1024
}