{
    "change_type": "cluster_created",
    "cluster_id": 4133,
    "cluster_size": 1,
    "template_mined": "pg *:*:* UTC * LOG: database system was not properly shut down; automatic recovery in progress",
    "cluster_count": 1024
}