{
    "change_type": "cluster_created",
    "cluster_id": 4111,
    "cluster_size": 1,
    "template_mined": "* Memory cgroup stats for *: cache:*KB rss:*KB rss huge:*KB shmem:*KB mapped file:*KB dirty:*KB writeback:*KB inactive anon:*KB active anon:*KB inactive file:*KB active file:*KB unevictable:*KB",
    "cluster_count": 1024
}