{
    "change_type": "cluster_created",
    "cluster_id": 4169,
    "cluster_size": 1,
    "template_mined": "docker: Error response from daemon: Container command '*' not found or does not *",
    "cluster_count": 1024
}