{
    "change_type": "cluster_created",
    "cluster_id": 4157,
    "cluster_size": 1,
    "template_mined": "host. All files and directories added to build context w ill have",
    "cluster_count": 1024
}