{
    "change_type": "cluster_created",
    "cluster_id": 4206,
    "cluster_size": 1,
    "template_mined": "failed to export image: failed to create image: failed to get layer",
    "cluster_count": 1024
}