{
    "change_type": "cluster_created",
    "cluster_id": 4201,
    "cluster_size": 1,
    "template_mined": "ALSA lib *:*:( snd config evaluate) function snd func concat returned error: No such file or directory",
    "cluster_count": 1024
}