{
    "change_type": "cluster_template_changed",
    "cluster_id": 4200,
    "cluster_size": 2,
    "template_mined": "ALSA lib *:*:(snd func <:*:> error evaluating <:*:>",
    "cluster_count": 1024
}