{
    "change_type": "cluster_created",
    "cluster_id": 4213,
    "cluster_size": 1,
    "template_mined": "SECURITY ING: You are building a Docker image from Windows against",
    "cluster_count": 1024
}