{
    "change_type": "cluster_created",
    "cluster_id": 4250,
    "cluster_size": 1,
    "template_mined": "OCI runtime create failed: runc create failed: unable to start container process: error during container init:",
    "cluster_count": 1024
}