{
    "change_type": "cluster_created",
    "cluster_id": 4239,
    "cluster_size": 1,
    "template_mined": "Be advised that this will trigger a Docker daemon restart which will stop running containers.",
    "cluster_count": 1024
}