{
    "change_type": "none",
    "cluster_id": 4092,
    "cluster_size": 2,
    "template_mined": "The stream or file * could not be opened: failed to open stream: Permission denied",
    "cluster_count": 1024
}