{
    "change_type": "cluster_created",
    "cluster_id": 4237,
    "cluster_size": 1,
    "template_mined": "Error checking TLS connection: Error checking and* regenerating the certs: There was an error validating certificates for host *: dial tcp *:*: i* timeout",
    "cluster_count": 1024
}