{
    "change_type": "cluster_created",
    "cluster_id": 4282,
    "cluster_size": 1,
    "template_mined": "* Creating socket for 'localhost:*', connect: Cannot assign requested address.",
    "cluster_count": 1024
}