{
    "change_type": "none",
    "cluster_id": 4284,
    "cluster_size": 3,
    "template_mined": "*T*:*:*+* E STORAGE * WiredTiger error (*) *, connection: posix open file, *:",
    "cluster_count": 1024
}