{
    "change_type": "cluster_created",
    "cluster_id": 4308,
    "cluster_size": 1,
    "template_mined": "docker: Error response from daemon: OCI runtime create failed: *:*: starting container process caused * w\\*: unknown.",
    "cluster_count": 1024
}