{
    "change_type": "cluster_created",
    "cluster_id": 4365,
    "cluster_size": 1,
    "template_mined": "(Not all processes could be identified, non owned process info",
    "cluster_count": 1024
}