{
    "change_type": "cluster_created",
    "cluster_id": 4429,
    "cluster_size": 1,
    "template_mined": "alphanumeric characters' Encountered errors while bringing up",
    "cluster_count": 1024
}