{
    "change_type": "cluster_created",
    "cluster_id": 4393,
    "cluster_size": 1,
    "template_mined": "pg config is required to build psycopg* from source. Please add the directory",
    "cluster_count": 1024
}