{
    "change_type": "cluster_created",
    "cluster_id": 4441,
    "cluster_size": 1,
    "template_mined": "SQLSTATE* php network getaddresses: getaddrinfo failed: Name does not resolve",
    "cluster_count": 1024
}